<?xml version="1.0" encoding="UTF-8" standalone="no"?>
<svg
   xmlns:dc="http://purl.org/dc/elements/1.1/"
   xmlns:cc="http://creativecommons.org/ns#"
   xmlns:rdf="http://www.w3.org/1999/02/22-rdf-syntax-ns#"
   xmlns:svg="http://www.w3.org/2000/svg"
   xmlns="http://www.w3.org/2000/svg"
   xmlns:sodipodi="http://sodipodi.sourceforge.net/DTD/sodipodi-0.dtd"
   xmlns:inkscape="http://www.inkscape.org/namespaces/inkscape"
   width="182.39717mm"
   height="77.759369mm"
   viewBox="0 0 182.39717 77.75937"
   version="1.1"
   id="svg2092"
   inkscape:version="1.0.1 (3bc2e813f5, 2020-09-07)"
   sodipodi:docname="cells.svg">
  <defs
     id="defs2086" />
  <sodipodi:namedview
     id="base"
     pagecolor="#ffffff"
     bordercolor="#666666"
     borderopacity="1.0"
     inkscape:pageopacity="0.0"
     inkscape:pageshadow="2"
     inkscape:zoom="1.4"
     inkscape:cx="523.53157"
     inkscape:cy="229.7358"
     inkscape:document-units="mm"
     inkscape:current-layer="g1123"
     inkscape:document-rotation="0"
     showgrid="true"
     inkscape:window-width="918"
     inkscape:window-height="1041"
     inkscape:window-x="998"
     inkscape:window-y="35"
     inkscape:window-maximized="0"
     fit-margin-left="0.5"
     fit-margin-top="0.5"
     fit-margin-right="0.5"
     fit-margin-bottom="0.5">
    <inkscape:grid
       type="xygrid"
       id="grid2655"
       originx="-5.5702935"
       originy="-5.5703152" />
  </sodipodi:namedview>
  <metadata
     id="metadata2089">
    <rdf:RDF>
      <cc:Work
         rdf:about="">
        <dc:format>image/svg+xml</dc:format>
        <dc:type
           rdf:resource="http://purl.org/dc/dcmitype/StillImage" />
        <dc:title />
      </cc:Work>
    </rdf:RDF>
  </metadata>
  <g
     inkscape:label="Layer 1"
     inkscape:groupmode="layer"
     id="layer1"
     transform="translate(-5.5702932,-5.5703156)">
    <g
       id="g1109">
      <rect
         style="fill:#dedede;fill-opacity:1;stroke:#000000;stroke-width:0.55936;stroke-linejoin:miter;stroke-miterlimit:4;stroke-dasharray:none;stroke-opacity:1;paint-order:normal"
         id="rect2657"
         width="8.4666662"
         height="8.4666662"
         x="6.3499885"
         y="6.3499956" />
      <rect
         style="fill:#dedede;fill-opacity:1;stroke:#000000;stroke-width:0.55936;stroke-linejoin:miter;stroke-miterlimit:4;stroke-dasharray:none;stroke-opacity:1;paint-order:normal"
         id="rect2659"
         width="8.4666662"
         height="8.4666662"
         x="14.816655"
         y="6.3499956" />
      <rect
         style="fill:#dedede;fill-opacity:1;stroke:#000000;stroke-width:0.55936;stroke-linejoin:miter;stroke-miterlimit:4;stroke-dasharray:none;stroke-opacity:1;paint-order:normal"
         id="rect2661"
         width="8.4666662"
         height="8.4666662"
         x="6.3499866"
         y="14.816664" />
      <rect
         style="fill:#8ef073;fill-opacity:1;stroke:#000000;stroke-width:0.55936;stroke-linejoin:miter;stroke-miterlimit:4;stroke-dasharray:none;stroke-opacity:1;paint-order:normal"
         id="rect2663"
         width="8.4666662"
         height="8.4666662"
         x="14.816651"
         y="14.816664" />
      <rect
         style="fill:#dedede;fill-opacity:1;stroke:#000000;stroke-width:0.55936;stroke-linejoin:miter;stroke-miterlimit:4;stroke-dasharray:none;stroke-opacity:1;paint-order:normal"
         id="rect2665"
         width="8.4666662"
         height="8.4666662"
         x="23.283323"
         y="6.3499956" />
      <rect
         style="fill:#dedede;fill-opacity:1;stroke:#000000;stroke-width:0.55936;stroke-linejoin:miter;stroke-miterlimit:4;stroke-dasharray:none;stroke-opacity:1;paint-order:normal"
         id="rect2667"
         width="8.4666662"
         height="8.4666662"
         x="31.74999"
         y="6.3499956" />
      <rect
         style="fill:#8ef073;fill-opacity:1;stroke:#000000;stroke-width:0.55936;stroke-linejoin:miter;stroke-miterlimit:4;stroke-dasharray:none;stroke-opacity:1;paint-order:normal"
         id="rect2669"
         width="8.4666662"
         height="8.4666662"
         x="23.283319"
         y="14.816664" />
      <rect
         style="fill:#8ef073;fill-opacity:1;stroke:#000000;stroke-width:0.55936;stroke-linejoin:miter;stroke-miterlimit:4;stroke-dasharray:none;stroke-opacity:1;paint-order:normal"
         id="rect2671"
         width="8.4666662"
         height="8.4666662"
         x="31.749983"
         y="14.816664" />
      <rect
         style="fill:#dedede;fill-opacity:1;stroke:#000000;stroke-width:0.55936;stroke-linejoin:miter;stroke-miterlimit:4;stroke-dasharray:none;stroke-opacity:1;paint-order:normal"
         id="rect2673"
         width="8.4666662"
         height="8.4666662"
         x="6.3499923"
         y="23.283331" />
      <rect
         style="fill:#8ef073;fill-opacity:1;stroke:#000000;stroke-width:0.55936;stroke-linejoin:miter;stroke-miterlimit:4;stroke-dasharray:none;stroke-opacity:1;paint-order:normal"
         id="rect2675"
         width="8.4666662"
         height="8.4666662"
         x="14.816659"
         y="23.283331" />
      <rect
         style="fill:#dedede;fill-opacity:1;stroke:#000000;stroke-width:0.55936;stroke-linejoin:miter;stroke-miterlimit:4;stroke-dasharray:none;stroke-opacity:1;paint-order:normal"
         id="rect2677"
         width="8.4666662"
         height="8.4666662"
         x="6.3499923"
         y="31.749996" />
      <rect
         style="fill:#8ef073;fill-opacity:1;stroke:#000000;stroke-width:0.55936;stroke-linejoin:miter;stroke-miterlimit:4;stroke-dasharray:none;stroke-opacity:1;paint-order:normal"
         id="rect2679"
         width="8.4666662"
         height="8.4666662"
         x="14.816659"
         y="31.749996" />
      <rect
         style="fill:#8ef073;fill-opacity:1;stroke:#000000;stroke-width:0.55936;stroke-linejoin:miter;stroke-miterlimit:4;stroke-dasharray:none;stroke-opacity:1;paint-order:normal"
         id="rect2681"
         width="8.4666662"
         height="8.4666662"
         x="23.283327"
         y="23.283331" />
      <rect
         style="fill:#8ef073;fill-opacity:1;stroke:#000000;stroke-width:0.55936;stroke-linejoin:miter;stroke-miterlimit:4;stroke-dasharray:none;stroke-opacity:1;paint-order:normal"
         id="rect2683"
         width="8.4666662"
         height="8.4666662"
         x="31.749994"
         y="23.283331" />
      <rect
         style="fill:#8ef073;fill-opacity:1;stroke:#000000;stroke-width:0.55936;stroke-linejoin:miter;stroke-miterlimit:4;stroke-dasharray:none;stroke-opacity:1;paint-order:normal"
         id="rect2685"
         width="8.4666662"
         height="8.4666662"
         x="23.283323"
         y="31.749996" />
      <rect
         style="fill:#8ef073;fill-opacity:1;stroke:#000000;stroke-width:0.55936;stroke-linejoin:miter;stroke-miterlimit:4;stroke-dasharray:none;stroke-opacity:1;paint-order:normal"
         id="rect2687"
         width="8.4666662"
         height="8.4666662"
         x="31.74999"
         y="31.749996" />
      <rect
         style="fill:#dedede;fill-opacity:1;stroke:#000000;stroke-width:0.55936;stroke-linejoin:miter;stroke-miterlimit:4;stroke-dasharray:none;stroke-opacity:1;paint-order:normal"
         id="rect2689"
         width="8.4666662"
         height="8.4666662"
         x="40.216663"
         y="6.3499975" />
      <rect
         style="fill:#dedede;fill-opacity:1;stroke:#000000;stroke-width:0.55936;stroke-linejoin:miter;stroke-miterlimit:4;stroke-dasharray:none;stroke-opacity:1;paint-order:normal"
         id="rect2691"
         width="8.4666662"
         height="8.4666662"
         x="48.683331"
         y="6.3499975" />
      <rect
         style="fill:#8ef073;fill-opacity:1;stroke:#000000;stroke-width:0.55936;stroke-linejoin:miter;stroke-miterlimit:4;stroke-dasharray:none;stroke-opacity:1;paint-order:normal"
         id="rect2693"
         width="8.4666662"
         height="8.4666662"
         x="40.216656"
         y="14.816664" />
      <rect
         style="fill:#8ef073;fill-opacity:1;stroke:#000000;stroke-width:0.55936;stroke-linejoin:miter;stroke-miterlimit:4;stroke-dasharray:none;stroke-opacity:1;paint-order:normal"
         id="rect2695"
         width="8.4666662"
         height="8.4666662"
         x="48.683331"
         y="14.816664" />
      <rect
         style="fill:#dedede;fill-opacity:1;stroke:#000000;stroke-width:0.55936;stroke-linejoin:miter;stroke-miterlimit:4;stroke-dasharray:none;stroke-opacity:1;paint-order:normal"
         id="rect2697"
         width="8.4666662"
         height="8.4666662"
         x="57.14999"
         y="6.3499975" />
      <rect
         style="fill:#dedede;fill-opacity:1;stroke:#000000;stroke-width:0.55936;stroke-linejoin:miter;stroke-miterlimit:4;stroke-dasharray:none;stroke-opacity:1;paint-order:normal"
         id="rect2699"
         width="8.4666662"
         height="8.4666662"
         x="65.616669"
         y="6.3499975" />
      <rect
         style="fill:#8ef073;fill-opacity:1;stroke:#000000;stroke-width:0.55936;stroke-linejoin:miter;stroke-miterlimit:4;stroke-dasharray:none;stroke-opacity:1;paint-order:normal"
         id="rect2701"
         width="8.4666662"
         height="8.4666662"
         x="57.14999"
         y="14.816664" />
      <rect
         style="fill:#8ef073;fill-opacity:1;stroke:#000000;stroke-width:0.55936;stroke-linejoin:miter;stroke-miterlimit:4;stroke-dasharray:none;stroke-opacity:1;paint-order:normal"
         id="rect2703"
         width="8.4666662"
         height="8.4666662"
         x="65.616661"
         y="14.816664" />
      <rect
         style="fill:#8ef073;fill-opacity:1;stroke:#000000;stroke-width:0.55936;stroke-linejoin:miter;stroke-miterlimit:4;stroke-dasharray:none;stroke-opacity:1;paint-order:normal"
         id="rect2705"
         width="8.4666662"
         height="8.4666662"
         x="40.216671"
         y="23.283333" />
      <rect
         style="fill:#8ef073;fill-opacity:1;stroke:#000000;stroke-width:0.55936;stroke-linejoin:miter;stroke-miterlimit:4;stroke-dasharray:none;stroke-opacity:1;paint-order:normal"
         id="rect2707"
         width="8.4666662"
         height="8.4666662"
         x="48.683331"
         y="23.283333" />
      <rect
         style="fill:#8ef073;fill-opacity:1;stroke:#000000;stroke-width:0.55936;stroke-linejoin:miter;stroke-miterlimit:4;stroke-dasharray:none;stroke-opacity:1;paint-order:normal"
         id="rect2709"
         width="8.4666662"
         height="8.4666662"
         x="40.216663"
         y="31.75" />
      <rect
         style="fill:#8ef073;fill-opacity:1;stroke:#000000;stroke-width:0.55936;stroke-linejoin:miter;stroke-miterlimit:4;stroke-dasharray:none;stroke-opacity:1;paint-order:normal"
         id="rect2711"
         width="8.4666662"
         height="8.4666662"
         x="48.683331"
         y="31.75" />
      <rect
         style="fill:#8ef073;fill-opacity:1;stroke:#000000;stroke-width:0.55936;stroke-linejoin:miter;stroke-miterlimit:4;stroke-dasharray:none;stroke-opacity:1;paint-order:normal"
         id="rect2713"
         width="8.4666662"
         height="8.4666662"
         x="57.150005"
         y="23.283333" />
      <rect
         style="fill:#8ef073;fill-opacity:1;stroke:#000000;stroke-width:0.55936;stroke-linejoin:miter;stroke-miterlimit:4;stroke-dasharray:none;stroke-opacity:1;paint-order:normal"
         id="rect2715"
         width="8.4666662"
         height="8.4666662"
         x="65.616669"
         y="23.283333" />
      <rect
         style="fill:#8ef073;fill-opacity:1;stroke:#000000;stroke-width:0.55936;stroke-linejoin:miter;stroke-miterlimit:4;stroke-dasharray:none;stroke-opacity:1;paint-order:normal"
         id="rect2717"
         width="8.4666662"
         height="8.4666662"
         x="57.150005"
         y="31.75" />
      <rect
         style="fill:#8ef073;fill-opacity:1;stroke:#000000;stroke-width:0.55936;stroke-linejoin:miter;stroke-miterlimit:4;stroke-dasharray:none;stroke-opacity:1;paint-order:normal"
         id="rect2719"
         width="8.4666662"
         height="8.4666662"
         x="65.616669"
         y="31.75" />
      <rect
         style="fill:#dedede;fill-opacity:1;stroke:#000000;stroke-width:0.55936;stroke-linejoin:miter;stroke-miterlimit:4;stroke-dasharray:none;stroke-opacity:1;paint-order:normal"
         id="rect2721"
         width="8.4666662"
         height="8.4666662"
         x="6.3499751"
         y="40.21666" />
      <rect
         style="fill:#8ef073;fill-opacity:1;stroke:#000000;stroke-width:0.55936;stroke-linejoin:miter;stroke-miterlimit:4;stroke-dasharray:none;stroke-opacity:1;paint-order:normal"
         id="rect2723"
         width="8.4666662"
         height="8.4666662"
         x="14.816644"
         y="40.21666" />
      <rect
         style="fill:#dedede;fill-opacity:1;stroke:#000000;stroke-width:0.55936;stroke-linejoin:miter;stroke-miterlimit:4;stroke-dasharray:none;stroke-opacity:1;paint-order:normal"
         id="rect2725"
         width="8.4666662"
         height="8.4666662"
         x="6.3499732"
         y="48.683331" />
      <rect
         style="fill:#f0bc73;fill-opacity:1;stroke:#000000;stroke-width:0.55936;stroke-linejoin:miter;stroke-miterlimit:4;stroke-dasharray:none;stroke-opacity:1;paint-order:normal"
         id="rect2727"
         width="8.4666662"
         height="8.4666662"
         x="14.81664"
         y="48.683331" />
      <rect
         style="fill:#8ef073;fill-opacity:1;stroke:#000000;stroke-width:0.55936;stroke-linejoin:miter;stroke-miterlimit:4;stroke-dasharray:none;stroke-opacity:1;paint-order:normal"
         id="rect2729"
         width="8.4666662"
         height="8.4666662"
         x="23.283308"
         y="40.21666" />
      <rect
         style="fill:#8ef073;fill-opacity:1;stroke:#000000;stroke-width:0.55936;stroke-linejoin:miter;stroke-miterlimit:4;stroke-dasharray:none;stroke-opacity:1;paint-order:normal"
         id="rect2731"
         width="8.4666662"
         height="8.4666662"
         x="31.749975"
         y="40.21666" />
      <rect
         style="fill:#f0bc73;fill-opacity:1;stroke:#000000;stroke-width:0.55936;stroke-linejoin:miter;stroke-miterlimit:4;stroke-dasharray:none;stroke-opacity:1;paint-order:normal"
         id="rect2733"
         width="8.4666662"
         height="8.4666662"
         x="23.283308"
         y="48.683331" />
      <rect
         style="fill:#f0bc73;fill-opacity:1;stroke:#000000;stroke-width:0.55936;stroke-linejoin:miter;stroke-miterlimit:4;stroke-dasharray:none;stroke-opacity:1;paint-order:normal"
         id="rect2735"
         width="8.4666662"
         height="8.4666662"
         x="31.749971"
         y="48.683331" />
      <rect
         style="fill:#dedede;fill-opacity:1;stroke:#000000;stroke-width:0.55936;stroke-linejoin:miter;stroke-miterlimit:4;stroke-dasharray:none;stroke-opacity:1;paint-order:normal"
         id="rect2737"
         width="8.4666662"
         height="8.4666662"
         x="6.3499789"
         y="57.149994" />
      <rect
         style="fill:#f0bc73;fill-opacity:1;stroke:#000000;stroke-width:0.55936;stroke-linejoin:miter;stroke-miterlimit:4;stroke-dasharray:none;stroke-opacity:1;paint-order:normal"
         id="rect2739"
         width="8.4666662"
         height="8.4666662"
         x="14.816648"
         y="57.149994" />
      <rect
         style="fill:#dedede;fill-opacity:1;stroke:#000000;stroke-width:0.55936;stroke-linejoin:miter;stroke-miterlimit:4;stroke-dasharray:none;stroke-opacity:1;paint-order:normal"
         id="rect2741"
         width="8.4666662"
         height="8.4666662"
         x="6.3499789"
         y="65.616661" />
      <rect
         style="fill:#f0bc73;fill-opacity:1;stroke:#000000;stroke-width:0.55936;stroke-linejoin:miter;stroke-miterlimit:4;stroke-dasharray:none;stroke-opacity:1;paint-order:normal"
         id="rect2743"
         width="8.4666662"
         height="8.4666662"
         x="14.816644"
         y="65.616661" />
      <rect
         style="fill:#f0bc73;fill-opacity:1;stroke:#000000;stroke-width:0.55936;stroke-linejoin:miter;stroke-miterlimit:4;stroke-dasharray:none;stroke-opacity:1;paint-order:normal"
         id="rect2745"
         width="8.4666662"
         height="8.4666662"
         x="23.283316"
         y="57.149994" />
      <rect
         style="fill:#f0bc73;fill-opacity:1;stroke:#000000;stroke-width:0.55936;stroke-linejoin:miter;stroke-miterlimit:4;stroke-dasharray:none;stroke-opacity:1;paint-order:normal"
         id="rect2747"
         width="8.4666662"
         height="8.4666662"
         x="31.749979"
         y="57.149994" />
      <rect
         style="fill:#f0bc73;fill-opacity:1;stroke:#000000;stroke-width:0.55936;stroke-linejoin:miter;stroke-miterlimit:4;stroke-dasharray:none;stroke-opacity:1;paint-order:normal"
         id="rect2749"
         width="8.4666662"
         height="8.4666662"
         x="23.283312"
         y="65.616661" />
      <rect
         style="fill:#f0bc73;fill-opacity:1;stroke:#000000;stroke-width:0.55936;stroke-linejoin:miter;stroke-miterlimit:4;stroke-dasharray:none;stroke-opacity:1;paint-order:normal"
         id="rect2751"
         width="8.4666662"
         height="8.4666662"
         x="31.749975"
         y="65.616661" />
      <rect
         style="fill:#73ecf0;fill-opacity:1;stroke:#000000;stroke-width:0.55936;stroke-linejoin:miter;stroke-miterlimit:4;stroke-dasharray:none;stroke-opacity:1;paint-order:normal"
         id="rect2753"
         width="8.4666662"
         height="8.4666662"
         x="40.216648"
         y="40.21666" />
      <rect
         style="fill:#f0bc73;fill-opacity:1;stroke:#000000;stroke-width:0.55936;stroke-linejoin:miter;stroke-miterlimit:4;stroke-dasharray:none;stroke-opacity:1;paint-order:normal"
         id="rect2755"
         width="8.4666662"
         height="8.4666662"
         x="48.683315"
         y="40.21666" />
      <rect
         style="fill:#f0bc73;fill-opacity:1;stroke:#000000;stroke-width:0.55936;stroke-linejoin:miter;stroke-miterlimit:4;stroke-dasharray:none;stroke-opacity:1;paint-order:normal"
         id="rect2757"
         width="8.4666662"
         height="8.4666662"
         x="40.21664"
         y="48.683331" />
      <rect
         style="fill:#f0bc73;fill-opacity:1;stroke:#000000;stroke-width:0.55936;stroke-linejoin:miter;stroke-miterlimit:4;stroke-dasharray:none;stroke-opacity:1;paint-order:normal"
         id="rect2759"
         width="8.4666662"
         height="8.4666662"
         x="48.683315"
         y="48.683331" />
      <rect
         style="fill:#f0bc73;fill-opacity:1;stroke:#000000;stroke-width:0.55936;stroke-linejoin:miter;stroke-miterlimit:4;stroke-dasharray:none;stroke-opacity:1;paint-order:normal"
         id="rect2761"
         width="8.4666662"
         height="8.4666662"
         x="57.149975"
         y="40.21666" />
      <rect
         style="fill:#f0bc73;fill-opacity:1;stroke:#000000;stroke-width:0.55936;stroke-linejoin:miter;stroke-miterlimit:4;stroke-dasharray:none;stroke-opacity:1;paint-order:normal"
         id="rect2763"
         width="8.4666662"
         height="8.4666662"
         x="65.616653"
         y="40.21666" />
      <rect
         style="fill:#f0bc73;fill-opacity:1;stroke:#000000;stroke-width:0.55936;stroke-linejoin:miter;stroke-miterlimit:4;stroke-dasharray:none;stroke-opacity:1;paint-order:normal"
         id="rect2765"
         width="8.4666662"
         height="8.4666662"
         x="57.149975"
         y="48.683331" />
      <rect
         style="fill:#f0bc73;fill-opacity:1;stroke:#000000;stroke-width:0.55936;stroke-linejoin:miter;stroke-miterlimit:4;stroke-dasharray:none;stroke-opacity:1;paint-order:normal"
         id="rect2767"
         width="8.4666662"
         height="8.4666662"
         x="65.616646"
         y="48.683331" />
      <rect
         style="fill:#f0bc73;fill-opacity:1;stroke:#000000;stroke-width:0.55936;stroke-linejoin:miter;stroke-miterlimit:4;stroke-dasharray:none;stroke-opacity:1;paint-order:normal"
         id="rect2769"
         width="8.4666662"
         height="8.4666662"
         x="40.216656"
         y="57.149998" />
      <rect
         style="fill:#f0bc73;fill-opacity:1;stroke:#000000;stroke-width:0.55936;stroke-linejoin:miter;stroke-miterlimit:4;stroke-dasharray:none;stroke-opacity:1;paint-order:normal"
         id="rect2771"
         width="8.4666662"
         height="8.4666662"
         x="48.683315"
         y="57.149998" />
      <rect
         style="fill:#f0bc73;fill-opacity:1;stroke:#000000;stroke-width:0.55936;stroke-linejoin:miter;stroke-miterlimit:4;stroke-dasharray:none;stroke-opacity:1;paint-order:normal"
         id="rect2773"
         width="8.4666662"
         height="8.4666662"
         x="40.216648"
         y="65.616669" />
      <rect
         style="fill:#f0bc73;fill-opacity:1;stroke:#000000;stroke-width:0.55936;stroke-linejoin:miter;stroke-miterlimit:4;stroke-dasharray:none;stroke-opacity:1;paint-order:normal"
         id="rect2775"
         width="8.4666662"
         height="8.4666662"
         x="48.683315"
         y="65.616669" />
      <rect
         style="fill:#f0bc73;fill-opacity:1;stroke:#000000;stroke-width:0.55936;stroke-linejoin:miter;stroke-miterlimit:4;stroke-dasharray:none;stroke-opacity:1;paint-order:normal"
         id="rect2777"
         width="8.4666662"
         height="8.4666662"
         x="57.14999"
         y="57.149998" />
      <rect
         style="fill:#f0bc73;fill-opacity:1;stroke:#000000;stroke-width:0.55936;stroke-linejoin:miter;stroke-miterlimit:4;stroke-dasharray:none;stroke-opacity:1;paint-order:normal"
         id="rect2779"
         width="8.4666662"
         height="8.4666662"
         x="65.616653"
         y="57.149998" />
      <rect
         style="fill:#f0bc73;fill-opacity:1;stroke:#000000;stroke-width:0.55936;stroke-linejoin:miter;stroke-miterlimit:4;stroke-dasharray:none;stroke-opacity:1;paint-order:normal"
         id="rect2781"
         width="8.4666662"
         height="8.4666662"
         x="57.14999"
         y="65.616669" />
      <rect
         style="fill:#f0bc73;fill-opacity:1;stroke:#000000;stroke-width:0.55936;stroke-linejoin:miter;stroke-miterlimit:4;stroke-dasharray:none;stroke-opacity:1;paint-order:normal"
         id="rect2783"
         width="8.4666662"
         height="8.4666662"
         x="65.616653"
         y="65.616669" />
      <rect
         style="fill:#dedede;fill-opacity:1;stroke:#000000;stroke-width:0.55936;stroke-linejoin:miter;stroke-miterlimit:4;stroke-dasharray:none;stroke-opacity:1;paint-order:normal"
         id="rect2785"
         width="8.4666662"
         height="8.4666662"
         x="74.083321"
         y="6.3499956" />
      <rect
         style="fill:#dedede;fill-opacity:1;stroke:#000000;stroke-width:0.55936;stroke-linejoin:miter;stroke-miterlimit:4;stroke-dasharray:none;stroke-opacity:1;paint-order:normal"
         id="rect2787"
         width="8.4666662"
         height="8.4666662"
         x="74.083321"
         y="14.816664" />
      <rect
         style="fill:#dedede;fill-opacity:1;stroke:#000000;stroke-width:0.55936;stroke-linejoin:miter;stroke-miterlimit:4;stroke-dasharray:none;stroke-opacity:1;paint-order:normal"
         id="rect2789"
         width="8.4666662"
         height="8.4666662"
         x="74.083336"
         y="23.283331" />
      <rect
         style="fill:#dedede;fill-opacity:1;stroke:#000000;stroke-width:0.55936;stroke-linejoin:miter;stroke-miterlimit:4;stroke-dasharray:none;stroke-opacity:1;paint-order:normal"
         id="rect2791"
         width="8.4666662"
         height="8.4666662"
         x="74.083321"
         y="31.749996" />
      <rect
         style="fill:#dedede;fill-opacity:1;stroke:#000000;stroke-width:0.55936;stroke-linejoin:miter;stroke-miterlimit:4;stroke-dasharray:none;stroke-opacity:1;paint-order:normal"
         id="rect2793"
         width="8.4666662"
         height="8.4666662"
         x="74.083313"
         y="40.21666" />
      <rect
         style="fill:#dedede;fill-opacity:1;stroke:#000000;stroke-width:0.55936;stroke-linejoin:miter;stroke-miterlimit:4;stroke-dasharray:none;stroke-opacity:1;paint-order:normal"
         id="rect2795"
         width="8.4666662"
         height="8.4666662"
         x="74.083305"
         y="48.683331" />
      <rect
         style="fill:#dedede;fill-opacity:1;stroke:#000000;stroke-width:0.55936;stroke-linejoin:miter;stroke-miterlimit:4;stroke-dasharray:none;stroke-opacity:1;paint-order:normal"
         id="rect2797"
         width="8.4666662"
         height="8.4666662"
         x="74.083313"
         y="57.149998" />
      <rect
         style="fill:#dedede;fill-opacity:1;stroke:#000000;stroke-width:0.55936;stroke-linejoin:miter;stroke-miterlimit:4;stroke-dasharray:none;stroke-opacity:1;paint-order:normal"
         id="rect2799"
         width="8.4666662"
         height="8.4666662"
         x="74.083313"
         y="65.616669" />
      <rect
         style="fill:#dedede;fill-opacity:1;stroke:#000000;stroke-width:0.55936;stroke-linejoin:miter;stroke-miterlimit:4;stroke-dasharray:none;stroke-opacity:1;paint-order:normal"
         id="rect2801"
         width="8.4666662"
         height="8.4666662"
         x="6.3499923"
         y="74.083328" />
      <rect
         style="fill:#dedede;fill-opacity:1;stroke:#000000;stroke-width:0.55936;stroke-linejoin:miter;stroke-miterlimit:4;stroke-dasharray:none;stroke-opacity:1;paint-order:normal"
         id="rect2803"
         width="8.4666662"
         height="8.4666662"
         x="14.816659"
         y="74.083328" />
      <rect
         style="fill:#dedede;fill-opacity:1;stroke:#000000;stroke-width:0.55936;stroke-linejoin:miter;stroke-miterlimit:4;stroke-dasharray:none;stroke-opacity:1;paint-order:normal"
         id="rect2805"
         width="8.4666662"
         height="8.4666662"
         x="23.283327"
         y="74.083328" />
      <rect
         style="fill:#dedede;fill-opacity:1;stroke:#000000;stroke-width:0.55936;stroke-linejoin:miter;stroke-miterlimit:4;stroke-dasharray:none;stroke-opacity:1;paint-order:normal"
         id="rect2807"
         width="8.4666662"
         height="8.4666662"
         x="31.74999"
         y="74.083328" />
      <rect
         style="fill:#dedede;fill-opacity:1;stroke:#000000;stroke-width:0.55936;stroke-linejoin:miter;stroke-miterlimit:4;stroke-dasharray:none;stroke-opacity:1;paint-order:normal"
         id="rect2809"
         width="8.4666662"
         height="8.4666662"
         x="40.216663"
         y="74.083336" />
      <rect
         style="fill:#dedede;fill-opacity:1;stroke:#000000;stroke-width:0.55936;stroke-linejoin:miter;stroke-miterlimit:4;stroke-dasharray:none;stroke-opacity:1;paint-order:normal"
         id="rect2811"
         width="8.4666662"
         height="8.4666662"
         x="48.683331"
         y="74.083336" />
      <rect
         style="fill:#dedede;fill-opacity:1;stroke:#000000;stroke-width:0.55936;stroke-linejoin:miter;stroke-miterlimit:4;stroke-dasharray:none;stroke-opacity:1;paint-order:normal"
         id="rect2813"
         width="8.4666662"
         height="8.4666662"
         x="57.150005"
         y="74.083336" />
      <rect
         style="fill:#dedede;fill-opacity:1;stroke:#000000;stroke-width:0.55936;stroke-linejoin:miter;stroke-miterlimit:4;stroke-dasharray:none;stroke-opacity:1;paint-order:normal"
         id="rect2815"
         width="8.4666662"
         height="8.4666662"
         x="65.616669"
         y="74.083336" />
      <rect
         style="fill:#dedede;fill-opacity:1;stroke:#000000;stroke-width:0.55936;stroke-linejoin:miter;stroke-miterlimit:4;stroke-dasharray:none;stroke-opacity:1;paint-order:normal"
         id="rect2817"
         width="8.4666662"
         height="8.4666662"
         x="74.083336"
         y="74.083336" />
    </g>
    <g
       id="g1123"
       transform="translate(0,-5.4239583)">
      <rect
         style="fill:#8ef073;fill-opacity:1;stroke:#000000;stroke-width:0.55936;stroke-linejoin:miter;stroke-miterlimit:4;stroke-dasharray:none;stroke-opacity:1;paint-order:normal"
         id="rect2819"
         width="8.4666662"
         height="8.4666662"
         x="97.366669"
         y="28.310415" />
      <rect
         style="fill:#73ecf0;fill-opacity:1;stroke:#000000;stroke-width:0.55936;stroke-linejoin:miter;stroke-miterlimit:4;stroke-dasharray:none;stroke-opacity:1;paint-order:normal"
         id="rect2821"
         width="8.4666662"
         height="8.4666662"
         x="97.366669"
         y="39.863888" />
      <rect
         style="fill:#f0bc73;fill-opacity:1;stroke:#000000;stroke-width:0.55936;stroke-linejoin:miter;stroke-miterlimit:4;stroke-dasharray:none;stroke-opacity:1;paint-order:normal"
         id="rect2823"
         width="8.4666662"
         height="8.4666662"
         x="97.366669"
         y="51.417358" />
      <text
         xml:space="preserve"
         style="font-style:normal;font-variant:normal;font-weight:normal;font-stretch:normal;font-size:4.23333px;line-height:1.25;font-family:sans-serif;-inkscape-font-specification:'sans-serif, Normal';font-variant-ligatures:normal;font-variant-caps:normal;font-variant-numeric:normal;font-variant-east-asian:normal;fill:#000000;fill-opacity:1;stroke:none;stroke-width:0.264583"
         x="110.47998"
         y="34.121944"
         id="text2827"><tspan
           sodipodi:role="line"
           id="tspan2825"
           x="110.47998"
           y="34.121944"
           style="font-style:normal;font-variant:normal;font-weight:normal;font-stretch:normal;font-size:4.23333px;font-family:sans-serif;-inkscape-font-specification:'sans-serif, Normal';font-variant-ligatures:normal;font-variant-caps:normal;font-variant-numeric:normal;font-variant-east-asian:normal;stroke-width:0.264583">cells that are checked</tspan></text>
      <text
         xml:space="preserve"
         style="font-style:normal;font-variant:normal;font-weight:normal;font-stretch:normal;font-size:4.23333px;line-height:1.25;font-family:sans-serif;-inkscape-font-specification:'sans-serif, Normal';font-variant-ligatures:normal;font-variant-caps:normal;font-variant-numeric:normal;font-variant-east-asian:normal;fill:#000000;fill-opacity:1;stroke:none;stroke-width:0.264583"
         x="110.47998"
         y="45.265106"
         id="text2831"><tspan
           sodipodi:role="line"
           id="tspan2829"
           x="110.47998"
           y="45.265106"
           style="font-style:normal;font-variant:normal;font-weight:normal;font-stretch:normal;font-size:4.23333px;font-family:sans-serif;-inkscape-font-specification:'sans-serif, Normal';font-variant-ligatures:normal;font-variant-caps:normal;font-variant-numeric:normal;font-variant-east-asian:normal;stroke-width:0.264583">cell that has special checks</tspan></text>
      <text
         xml:space="preserve"
         style="font-style:normal;font-variant:normal;font-weight:normal;font-stretch:normal;font-size:4.23333px;line-height:1.25;font-family:sans-serif;-inkscape-font-specification:'sans-serif, Normal';font-variant-ligatures:normal;font-variant-caps:normal;font-variant-numeric:normal;font-variant-east-asian:normal;fill:#000000;fill-opacity:1;stroke:none;stroke-width:0.264583"
         x="110.47998"
         y="57.228889"
         id="text2835"><tspan
           sodipodi:role="line"
           id="tspan2833"
           x="110.47998"
           y="57.228889"
           style="font-style:normal;font-variant:normal;font-weight:normal;font-stretch:normal;font-size:4.23333px;font-family:sans-serif;-inkscape-font-specification:'sans-serif, Normal';font-variant-ligatures:normal;font-variant-caps:normal;font-variant-numeric:normal;font-variant-east-asian:normal;stroke-width:0.264583">cells that do not need to be checked</tspan></text>
      <rect
         style="fill:#dedede;fill-opacity:1;stroke:#000000;stroke-width:0.55936;stroke-linejoin:miter;stroke-miterlimit:4;stroke-dasharray:none;stroke-opacity:1;paint-order:normal"
         id="rect931"
         width="8.4666662"
         height="8.4666662"
         x="97.366669"
         y="62.970833" />
      <text
         xml:space="preserve"
         style="font-style:normal;font-variant:normal;font-weight:normal;font-stretch:normal;font-size:4.23333px;line-height:1.25;font-family:sans-serif;-inkscape-font-specification:'sans-serif, Normal';font-variant-ligatures:normal;font-variant-caps:normal;font-variant-numeric:normal;font-variant-east-asian:normal;fill:#000000;fill-opacity:1;stroke:none;stroke-width:0.264583"
         x="110.28752"
         y="68.372055"
         id="text1026"><tspan
           sodipodi:role="line"
           id="tspan1024"
           x="110.28752"
           y="68.372055"
           style="font-style:normal;font-variant:normal;font-weight:normal;font-stretch:normal;font-size:4.23333px;font-family:sans-serif;-inkscape-font-specification:'sans-serif, Normal';font-variant-ligatures:normal;font-variant-caps:normal;font-variant-numeric:normal;font-variant-east-asian:normal;stroke-width:0.264583">cells that are out of range</tspan></text>
    </g>
  </g>
</svg>
